<?xml version="1.0" encoding="UTF-8" standalone="no" ?>
<COLLADA xmlns="http://www.collada.org/2005/11/COLLADASchema" version="1.4.1">
    <asset>
        <contributor>
            <authoring_tool>SketchUp 18.0.16975</authoring_tool>
        </contributor>
        <created>2018-02-08T18:25:26Z</created>
        <modified>2018-02-08T18:25:26Z</modified>
        <unit meter="0.0254" name="inch" />
        <up_axis>Z_UP</up_axis>
    </asset>
    <library_cameras>
        <camera id="ID1" name="skp_camera_Last_Saved_SketchUp_View">
            <optics>
                <technique_common>
                    <perspective>
                        <yfov>35</yfov>
                        <aspect_ratio>0</aspect_ratio>
                        <znear>1</znear>
                        <zfar>1000</zfar>
                    </perspective>
                </technique_common>
            </optics>
        </camera>
    </library_cameras>
    <library_visual_scenes>
        <visual_scene id="ID2">
            <node name="SketchUp">
                <instance_geometry url="#ID3">
                    <bind_material>
                        <technique_common>
                            <instance_material symbol="Material2" target="#ID5">
                                <bind_vertex_input semantic="UVSET0" input_semantic="TEXCOORD" input_set="0" />
                            </instance_material>
                            <instance_material symbol="Material3" target="#ID9">
                                <bind_vertex_input semantic="UVSET0" input_semantic="TEXCOORD" input_set="0" />
                            </instance_material>
                            <instance_material symbol="Material4" target="#ID16">
                                <bind_vertex_input semantic="UVSET0" input_semantic="TEXCOORD" input_set="0" />
                            </instance_material>
                        </technique_common>
                    </bind_material>
                </instance_geometry>
                <instance_geometry url="#ID20">
                    <bind_material>
                        <technique_common>
                            <instance_material symbol="Material2" target="#ID5">
                                <bind_vertex_input semantic="UVSET0" input_semantic="TEXCOORD" input_set="0" />
                            </instance_material>
                            <instance_material symbol="Material3" target="#ID9">
                                <bind_vertex_input semantic="UVSET0" input_semantic="TEXCOORD" input_set="0" />
                            </instance_material>
                            <instance_material symbol="Material4" target="#ID16">
                                <bind_vertex_input semantic="UVSET0" input_semantic="TEXCOORD" input_set="0" />
                            </instance_material>
                        </technique_common>
                    </bind_material>
                </instance_geometry>
                <instance_geometry url="#ID28">
                    <bind_material>
                        <technique_common>
                            <instance_material symbol="Material2" target="#ID9">
                                <bind_vertex_input semantic="UVSET0" input_semantic="TEXCOORD" input_set="0" />
                            </instance_material>
                        </technique_common>
                    </bind_material>
                </instance_geometry>
                <instance_geometry url="#ID36">
                    <bind_material>
                        <technique_common>
                            <instance_material symbol="Material2" target="#ID5">
                                <bind_vertex_input semantic="UVSET0" input_semantic="TEXCOORD" input_set="0" />
                            </instance_material>
                            <instance_material symbol="Material3" target="#ID9">
                                <bind_vertex_input semantic="UVSET0" input_semantic="TEXCOORD" input_set="0" />
                            </instance_material>
                            <instance_material symbol="Material4" target="#ID16">
                                <bind_vertex_input semantic="UVSET0" input_semantic="TEXCOORD" input_set="0" />
                            </instance_material>
                        </technique_common>
                    </bind_material>
                </instance_geometry>
                <instance_geometry url="#ID44">
                    <bind_material>
                        <technique_common>
                            <instance_material symbol="Material2" target="#ID5">
                                <bind_vertex_input semantic="UVSET0" input_semantic="TEXCOORD" input_set="0" />
                            </instance_material>
                            <instance_material symbol="Material3" target="#ID9">
                                <bind_vertex_input semantic="UVSET0" input_semantic="TEXCOORD" input_set="0" />
                            </instance_material>
                            <instance_material symbol="Material4" target="#ID16">
                                <bind_vertex_input semantic="UVSET0" input_semantic="TEXCOORD" input_set="0" />
                            </instance_material>
                        </technique_common>
                    </bind_material>
                </instance_geometry>
                <instance_geometry url="#ID52">
                    <bind_material>
                        <technique_common>
                            <instance_material symbol="Material2" target="#ID5">
                                <bind_vertex_input semantic="UVSET0" input_semantic="TEXCOORD" input_set="0" />
                            </instance_material>
                            <instance_material symbol="Material3" target="#ID9">
                                <bind_vertex_input semantic="UVSET0" input_semantic="TEXCOORD" input_set="0" />
                            </instance_material>
                            <instance_material symbol="Material4" target="#ID16">
                                <bind_vertex_input semantic="UVSET0" input_semantic="TEXCOORD" input_set="0" />
                            </instance_material>
                        </technique_common>
                    </bind_material>
                </instance_geometry>
                <instance_geometry url="#ID60">
                    <bind_material>
                        <technique_common>
                            <instance_material symbol="Material2" target="#ID5">
                                <bind_vertex_input semantic="UVSET0" input_semantic="TEXCOORD" input_set="0" />
                            </instance_material>
                            <instance_material symbol="Material3" target="#ID9">
                                <bind_vertex_input semantic="UVSET0" input_semantic="TEXCOORD" input_set="0" />
                            </instance_material>
                            <instance_material symbol="Material4" target="#ID16">
                                <bind_vertex_input semantic="UVSET0" input_semantic="TEXCOORD" input_set="0" />
                            </instance_material>
                        </technique_common>
                    </bind_material>
                </instance_geometry>
                <instance_geometry url="#ID68">
                    <bind_material>
                        <technique_common>
                            <instance_material symbol="Material2" target="#ID5">
                                <bind_vertex_input semantic="UVSET0" input_semantic="TEXCOORD" input_set="0" />
                            </instance_material>
                            <instance_material symbol="Material3" target="#ID9">
                                <bind_vertex_input semantic="UVSET0" input_semantic="TEXCOORD" input_set="0" />
                            </instance_material>
                            <instance_material symbol="Material4" target="#ID16">
                                <bind_vertex_input semantic="UVSET0" input_semantic="TEXCOORD" input_set="0" />
                            </instance_material>
                        </technique_common>
                    </bind_material>
                </instance_geometry>
                <instance_geometry url="#ID76">
                    <bind_material>
                        <technique_common>
                            <instance_material symbol="Material2" target="#ID5">
                                <bind_vertex_input semantic="UVSET0" input_semantic="TEXCOORD" input_set="0" />
                            </instance_material>
                            <instance_material symbol="Material3" target="#ID9">
                                <bind_vertex_input semantic="UVSET0" input_semantic="TEXCOORD" input_set="0" />
                            </instance_material>
                            <instance_material symbol="Material4" target="#ID16">
                                <bind_vertex_input semantic="UVSET0" input_semantic="TEXCOORD" input_set="0" />
                            </instance_material>
                        </technique_common>
                    </bind_material>
                </instance_geometry>
                <instance_geometry url="#ID84">
                    <bind_material>
                        <technique_common>
                            <instance_material symbol="Material2" target="#ID5">
                                <bind_vertex_input semantic="UVSET0" input_semantic="TEXCOORD" input_set="0" />
                            </instance_material>
                            <instance_material symbol="Material3" target="#ID9">
                                <bind_vertex_input semantic="UVSET0" input_semantic="TEXCOORD" input_set="0" />
                            </instance_material>
                            <instance_material symbol="Material4" target="#ID16">
                                <bind_vertex_input semantic="UVSET0" input_semantic="TEXCOORD" input_set="0" />
                            </instance_material>
                        </technique_common>
                    </bind_material>
                </instance_geometry>
                <instance_geometry url="#ID92">
                    <bind_material>
                        <technique_common>
                            <instance_material symbol="Material2" target="#ID5">
                                <bind_vertex_input semantic="UVSET0" input_semantic="TEXCOORD" input_set="0" />
                            </instance_material>
                            <instance_material symbol="Material3" target="#ID9">
                                <bind_vertex_input semantic="UVSET0" input_semantic="TEXCOORD" input_set="0" />
                            </instance_material>
                            <instance_material symbol="Material4" target="#ID16">
                                <bind_vertex_input semantic="UVSET0" input_semantic="TEXCOORD" input_set="0" />
                            </instance_material>
                        </technique_common>
                    </bind_material>
                </instance_geometry>
                <instance_geometry url="#ID100">
                    <bind_material>
                        <technique_common>
                            <instance_material symbol="Material2" target="#ID5">
                                <bind_vertex_input semantic="UVSET0" input_semantic="TEXCOORD" input_set="0" />
                            </instance_material>
                            <instance_material symbol="Material3" target="#ID9">
                                <bind_vertex_input semantic="UVSET0" input_semantic="TEXCOORD" input_set="0" />
                            </instance_material>
                            <instance_material symbol="Material4" target="#ID16">
                                <bind_vertex_input semantic="UVSET0" input_semantic="TEXCOORD" input_set="0" />
                            </instance_material>
                        </technique_common>
                    </bind_material>
                </instance_geometry>
                <instance_geometry url="#ID108">
                    <bind_material>
                        <technique_common>
                            <instance_material symbol="Material2" target="#ID5">
                                <bind_vertex_input semantic="UVSET0" input_semantic="TEXCOORD" input_set="0" />
                            </instance_material>
                            <instance_material symbol="Material3" target="#ID9">
                                <bind_vertex_input semantic="UVSET0" input_semantic="TEXCOORD" input_set="0" />
                            </instance_material>
                            <instance_material symbol="Material4" target="#ID16">
                                <bind_vertex_input semantic="UVSET0" input_semantic="TEXCOORD" input_set="0" />
                            </instance_material>
                        </technique_common>
                    </bind_material>
                </instance_geometry>
                <instance_geometry url="#ID116">
                    <bind_material>
                        <technique_common>
                            <instance_material symbol="Material2" target="#ID9">
                                <bind_vertex_input semantic="UVSET0" input_semantic="TEXCOORD" input_set="0" />
                            </instance_material>
                        </technique_common>
                    </bind_material>
                </instance_geometry>
                <instance_geometry url="#ID124">
                    <bind_material>
                        <technique_common>
                            <instance_material symbol="Material2" target="#ID125">
                                <bind_vertex_input semantic="UVSET0" input_semantic="TEXCOORD" input_set="0" />
                            </instance_material>
                        </technique_common>
                    </bind_material>
                </instance_geometry>
                <node name="skp_camera_Last_Saved_SketchUp_View">
                    <matrix>0.9409266 0.1506068 -0.3032733 -74.15659 -0.3386105 0.4185044 -0.8427318 -485.3875 0 0.8956404 0.444779 313.2863 0 0 0 1</matrix>
                    <instance_camera url="#ID1" />
                </node>
            </node>
        </visual_scene>
    </library_visual_scenes>
    <library_geometries>
        <geometry id="ID3">
            <mesh>
                <source id="ID6">
                    <float_array id="ID17" count="144">30.78087 6.692913 164.5669 25.66079 0.3937008 164.5669 25.66079 6.692913 164.5669 30.78087 0.3937008 164.5669 30.78087 0.3937008 164.5669 30.78087 6.692913 164.5669 25.66079 0.3937008 164.5669 25.66079 6.692913 164.5669 25.66079 6.692913 0 25.66079 0.3937008 164.5669 25.66079 0.3937008 0 25.66079 6.692913 164.5669 25.66079 6.692913 164.5669 25.66079 6.692913 0 25.66079 0.3937008 164.5669 25.66079 0.3937008 0 30.78087 6.692913 164.5669 25.66079 6.692913 0 30.78087 6.692913 0 25.66079 6.692913 164.5669 25.66079 6.692913 164.5669 30.78087 6.692913 164.5669 25.66079 6.692913 0 30.78087 6.692913 0 30.78087 6.692913 164.5669 30.78087 0.3937008 0 30.78087 0.3937008 164.5669 30.78087 6.692913 0 30.78087 6.692913 0 30.78087 6.692913 164.5669 30.78087 0.3937008 0 30.78087 0.3937008 164.5669 25.66079 0.3937008 164.5669 30.78087 0.3937008 0 25.66079 0.3937008 0 30.78087 0.3937008 164.5669 30.78087 0.3937008 164.5669 25.66079 0.3937008 164.5669 30.78087 0.3937008 0 25.66079 0.3937008 0 30.78087 6.692913 0 25.66079 0.3937008 0 25.66079 6.692913 0 30.78087 0.3937008 0 30.78087 0.3937008 0 30.78087 6.692913 0 25.66079 0.3937008 0 25.66079 6.692913 0</float_array>
                    <technique_common>
                        <accessor count="48" source="#ID17" stride="3">
                            <param name="X" type="float" />
                            <param name="Y" type="float" />
                            <param name="Z" type="float" />
                        </accessor>
                    </technique_common>
                </source>
                <source id="ID7">
                    <float_array id="ID18" count="144">0 0 -1 0 0 -1 0 0 -1 0 0 -1 -0 -0 1 -0 -0 1 -0 -0 1 -0 -0 1 1 0 0 1 0 0 1 0 0 1 0 0 -1 -0 -0 -1 -0 -0 -1 -0 -0 -1 -0 -0 0 -1 0 0 -1 0 0 -1 0 0 -1 0 -0 1 -0 -0 1 -0 -0 1 -0 -0 1 -0 -1 0 0 -1 0 0 -1 0 0 -1 0 0 1 -0 -0 1 -0 -0 1 -0 -0 1 -0 -0 0 1 0 0 1 0 0 1 0 0 1 0 -0 -1 -0 -0 -1 -0 -0 -1 -0 -0 -1 -0 0 0 -1 0 0 -1 0 0 -1 0 0 -1 -0 -0 1 -0 -0 1 -0 -0 1 -0 -0 1</float_array>
                    <technique_common>
                        <accessor count="48" source="#ID18" stride="3">
                            <param name="X" type="float" />
                            <param name="Y" type="float" />
                            <param name="Z" type="float" />
                        </accessor>
                    </technique_common>
                </source>
                <source id="ID14">
                    <float_array id="ID19" count="40">-1.686239 0.3943366 -1.686239 0.4818257 -1.615126 0.3943366 -1.615126 0.4818257 0.4818257 2.285652 0.4818257 0 0.3943366 2.285652 0.3943366 0 1.615126 2.285652 1.686239 2.285652 1.615126 0 1.686239 0 -0.4818257 0 -0.4818257 2.285652 -0.3943366 0 -0.3943366 2.285652 -1.686239 2.285652 -1.615126 2.285652 -1.686239 0 -1.615126 0</float_array>
                    <technique_common>
                        <accessor count="20" source="#ID19" stride="2">
                            <param name="S" type="float" />
                            <param name="T" type="float" />
                        </accessor>
                    </technique_common>
                </source>
                <vertices id="ID8">
                    <input semantic="POSITION" source="#ID6" />
                    <input semantic="NORMAL" source="#ID7" />
                </vertices>
                <triangles count="10" material="Material2">
                    <input offset="0" semantic="VERTEX" source="#ID8" />
                    <p>0 1 2 1 0 3 8 9 10 9 8 11 16 17 18 17 16 19 24 25 26 25 24 27 32 33 34 33 32 35</p>
                </triangles>
                <triangles count="12" material="Material3">
                    <input offset="0" semantic="VERTEX" source="#ID8" />
                    <input offset="1" semantic="TEXCOORD" source="#ID14" />
                    <p>4 0 5 1 6 2 7 3 6 2 5 1 12 4 13 5 14 6 15 7 14 6 13 5 20 8 21 9 22 10 23 11 22 10 21 9 28 12 29 13 30 14 31 15 30 14 29 13 36 16 37 17 38 18 39 19 38 18 37 17 40 1 41 2 42 3 41 2 40 1 43 0</p>
                </triangles>
                <triangles count="2" material="Material4">
                    <input offset="0" semantic="VERTEX" source="#ID8" />
                    <p>44 45 46 47 46 45</p>
                </triangles>
            </mesh>
        </geometry>
        <geometry id="ID20">
            <mesh>
                <source id="ID21">
                    <float_array id="ID25" count="120">17.57181 6.692913 0 12.45173 0.3937008 0 12.45173 6.692913 0 17.57181 0.3937008 0 17.57181 0.3937008 0 17.57181 6.692913 0 12.45173 0.3937008 0 12.45173 6.692913 0 17.57181 6.692913 164.5669 12.45173 6.692913 0 17.57181 6.692913 0 12.45173 6.692913 164.5669 12.45173 6.692913 164.5669 17.57181 6.692913 164.5669 12.45173 6.692913 0 17.57181 6.692913 0 12.45173 0.3937008 164.5669 17.57181 0.3937008 0 12.45173 0.3937008 0 17.57181 0.3937008 164.5669 17.57181 0.3937008 164.5669 12.45173 0.3937008 164.5669 17.57181 0.3937008 0 12.45173 0.3937008 0 12.45173 6.692913 0 12.45173 0.3937008 164.5669 12.45173 0.3937008 0 12.45173 6.692913 164.5669 12.45173 6.692913 164.5669 12.45173 6.692913 0 12.45173 0.3937008 164.5669 12.45173 0.3937008 0 17.57181 6.692913 164.5669 12.45173 0.3937008 164.5669 12.45173 6.692913 164.5669 17.57181 0.3937008 164.5669 17.57181 0.3937008 164.5669 17.57181 6.692913 164.5669 12.45173 0.3937008 164.5669 12.45173 6.692913 164.5669</float_array>
                    <technique_common>
                        <accessor count="40" source="#ID25" stride="3">
                            <param name="X" type="float" />
                            <param name="Y" type="float" />
                            <param name="Z" type="float" />
                        </accessor>
                    </technique_common>
                </source>
                <source id="ID22">
                    <float_array id="ID26" count="120">0 0 -1 0 0 -1 0 0 -1 0 0 -1 -0 -0 1 -0 -0 1 -0 -0 1 -0 -0 1 0 -1 0 0 -1 0 0 -1 0 0 -1 0 -0 1 -0 -0 1 -0 -0 1 -0 -0 1 -0 0 1 0 0 1 0 0 1 0 0 1 0 -0 -1 -0 -0 -1 -0 -0 -1 -0 -0 -1 -0 1 0 0 1 0 0 1 0 0 1 0 0 -1 -0 -0 -1 -0 -0 -1 -0 -0 -1 -0 -0 0 0 -1 0 0 -1 0 0 -1 0 0 -1 -0 -0 1 -0 -0 1 -0 -0 1 -0 -0 1</float_array>
                    <technique_common>
                        <accessor count="40" source="#ID26" stride="3">
                            <param name="X" type="float" />
                            <param name="Y" type="float" />
                            <param name="Z" type="float" />
                        </accessor>
                    </technique_common>
                </source>
                <source id="ID24">
                    <float_array id="ID27" count="32">-1.50278 0.4818257 -1.431667 0.3943366 -1.431667 0.4818257 -1.50278 0.3943366 1.431667 2.285652 1.50278 2.285652 1.431667 0 1.50278 0 -1.50278 2.285652 -1.431667 2.285652 -1.50278 0 -1.431667 0 0.4818257 2.285652 0.4818257 0 0.3943366 2.285652 0.3943366 0</float_array>
                    <technique_common>
                        <accessor count="16" source="#ID27" stride="2">
                            <param name="S" type="float" />
                            <param name="T" type="float" />
                        </accessor>
                    </technique_common>
                </source>
                <vertices id="ID23">
                    <input semantic="POSITION" source="#ID21" />
                    <input semantic="NORMAL" source="#ID22" />
                </vertices>
                <triangles count="10" material="Material3">
                    <input offset="0" semantic="VERTEX" source="#ID23" />
                    <input offset="1" semantic="TEXCOORD" source="#ID24" />
                    <p>0 0 1 1 2 2 1 1 0 0 3 3 12 4 13 5 14 6 15 7 14 6 13 5 20 8 21 9 22 10 23 11 22 10 21 9 28 12 29 13 30 14 31 15 30 14 29 13 36 3 37 0 38 1 39 2 38 1 37 0</p>
                </triangles>
                <triangles count="2" material="Material4">
                    <input offset="0" semantic="VERTEX" source="#ID23" />
                    <p>4 5 6 7 6 5</p>
                </triangles>
                <triangles count="8" material="Material2">
                    <input offset="0" semantic="VERTEX" source="#ID23" />
                    <p>8 9 10 9 8 11 16 17 18 17 16 19 24 25 26 25 24 27 32 33 34 33 32 35</p>
                </triangles>
            </mesh>
        </geometry>
        <geometry id="ID28">
            <mesh>
                <source id="ID29">
                    <float_array id="ID33" count="48">5.120078 6.692913 164.5669 5.120078 0.3937008 0 5.120078 0.3937008 164.5669 5.120078 6.692913 0 5.120078 6.692913 0 5.120078 6.692913 164.5669 5.120078 0.3937008 0 5.120078 0.3937008 164.5669 0 0.3937008 164.5669 5.120078 0.3937008 0 0 0.3937008 0 5.120078 0.3937008 164.5669 5.120078 0.3937008 164.5669 0 0.3937008 164.5669 5.120078 0.3937008 0 0 0.3937008 0</float_array>
                    <technique_common>
                        <accessor count="16" source="#ID33" stride="3">
                            <param name="X" type="float" />
                            <param name="Y" type="float" />
                            <param name="Z" type="float" />
                        </accessor>
                    </technique_common>
                </source>
                <source id="ID30">
                    <float_array id="ID34" count="48">-1 0 0 -1 0 0 -1 0 0 -1 0 0 1 -0 -0 1 -0 -0 1 -0 -0 1 -0 -0 0 1 0 0 1 0 0 1 0 0 1 0 -0 -1 -0 -0 -1 -0 -0 -1 -0 -0 -1 -0</float_array>
                    <technique_common>
                        <accessor count="16" source="#ID34" stride="3">
                            <param name="X" type="float" />
                            <param name="Y" type="float" />
                            <param name="Z" type="float" />
                        </accessor>
                    </technique_common>
                </source>
                <source id="ID32">
                    <float_array id="ID35" count="16">-0.4818257 2.285652 -0.3943366 0 -0.3943366 2.285652 -0.4818257 0 -1.258727 2.285652 -1.329839 0 -1.258727 0 -1.329839 2.285652</float_array>
                    <technique_common>
                        <accessor count="8" source="#ID35" stride="2">
                            <param name="S" type="float" />
                            <param name="T" type="float" />
                        </accessor>
                    </technique_common>
                </source>
                <vertices id="ID31">
                    <input semantic="POSITION" source="#ID29" />
                    <input semantic="NORMAL" source="#ID30" />
                </vertices>
                <triangles count="8" material="Material2">
                    <input offset="0" semantic="VERTEX" source="#ID31" />
                    <input offset="1" semantic="TEXCOORD" source="#ID32" />
                    <p>0 0 1 1 2 2 1 1 0 0 3 3 4 3 5 0 6 1 7 2 6 1 5 0 8 4 9 5 10 6 9 5 8 4 11 7 12 7 13 4 14 5 15 6 14 5 13 4</p>
                </triangles>
            </mesh>
        </geometry>
        <geometry id="ID36">
            <mesh>
                <source id="ID37">
                    <float_array id="ID41" count="144">56.44165 6.692913 164.5669 56.44165 0.3937008 0 56.44165 0.3937008 164.5669 56.44165 6.692913 0 56.44165 6.692913 0 56.44165 6.692913 164.5669 56.44165 0.3937008 0 56.44165 0.3937008 164.5669 56.44165 6.692913 0 51.32157 0.3937008 0 51.32157 6.692913 0 56.44165 0.3937008 0 56.44165 0.3937008 0 56.44165 6.692913 0 51.32157 0.3937008 0 51.32157 6.692913 0 51.32157 0.3937008 164.5669 56.44165 0.3937008 0 51.32157 0.3937008 0 56.44165 0.3937008 164.5669 56.44165 0.3937008 164.5669 51.32157 0.3937008 164.5669 56.44165 0.3937008 0 51.32157 0.3937008 0 56.44165 6.692913 164.5669 51.32157 0.3937008 164.5669 51.32157 6.692913 164.5669 56.44165 0.3937008 164.5669 56.44165 0.3937008 164.5669 56.44165 6.692913 164.5669 51.32157 0.3937008 164.5669 51.32157 6.692913 164.5669 56.44165 6.692913 164.5669 51.32157 6.692913 0 56.44165 6.692913 0 51.32157 6.692913 164.5669 51.32157 6.692913 164.5669 56.44165 6.692913 164.5669 51.32157 6.692913 0 56.44165 6.692913 0 51.32157 6.692913 0 51.32157 0.3937008 164.5669 51.32157 0.3937008 0 51.32157 6.692913 164.5669 51.32157 6.692913 164.5669 51.32157 6.692913 0 51.32157 0.3937008 164.5669 51.32157 0.3937008 0</float_array>
                    <technique_common>
                        <accessor count="48" source="#ID41" stride="3">
                            <param name="X" type="float" />
                            <param name="Y" type="float" />
                            <param name="Z" type="float" />
                        </accessor>
                    </technique_common>
                </source>
                <source id="ID38">
                    <float_array id="ID42" count="144">-1 0 0 -1 0 0 -1 0 0 -1 0 0 1 -0 -0 1 -0 -0 1 -0 -0 1 -0 -0 0 0 -1 0 0 -1 0 0 -1 0 0 -1 -0 -0 1 -0 -0 1 -0 -0 1 -0 -0 1 0 1 0 0 1 0 0 1 0 0 1 0 -0 -1 -0 -0 -1 -0 -0 -1 -0 -0 -1 -0 0 0 -1 0 0 -1 0 0 -1 0 0 -1 -0 -0 1 -0 -0 1 -0 -0 1 -0 -0 1 0 -1 0 0 -1 0 0 -1 0 0 -1 0 -0 1 -0 -0 1 -0 -0 1 -0 -0 1 -0 1 0 0 1 0 0 1 0 0 1 0 0 -1 -0 -0 -1 -0 -0 -1 -0 -0 -1 -0 -0</float_array>
                    <technique_common>
                        <accessor count="48" source="#ID42" stride="3">
                            <param name="X" type="float" />
                            <param name="Y" type="float" />
                            <param name="Z" type="float" />
                        </accessor>
                    </technique_common>
                </source>
                <source id="ID40">
                    <float_array id="ID43" count="40">-0.4818257 0 -0.4818257 2.285652 -0.3943366 0 -0.3943366 2.285652 -2.042638 0.4818257 -1.971526 0.3943366 -1.971526 0.4818257 -2.042638 0.3943366 -2.042638 2.285652 -1.971526 2.285652 -2.042638 0 -1.971526 0 1.971526 2.285652 2.042638 2.285652 1.971526 0 2.042638 0 0.4818257 2.285652 0.4818257 0 0.3943366 2.285652 0.3943366 0</float_array>
                    <technique_common>
                        <accessor count="20" source="#ID43" stride="2">
                            <param name="S" type="float" />
                            <param name="T" type="float" />
                        </accessor>
                    </technique_common>
                </source>
                <vertices id="ID39">
                    <input semantic="POSITION" source="#ID37" />
                    <input semantic="NORMAL" source="#ID38" />
                </vertices>
                <triangles count="10" material="Material2">
                    <input offset="0" semantic="VERTEX" source="#ID39" />
                    <p>0 1 2 1 0 3 16 17 18 17 16 19 24 25 26 25 24 27 32 33 34 33 32 35 40 41 42 41 40 43</p>
                </triangles>
                <triangles count="12" material="Material3">
                    <input offset="0" semantic="VERTEX" source="#ID39" />
                    <input offset="1" semantic="TEXCOORD" source="#ID40" />
                    <p>4 0 5 1 6 2 7 3 6 2 5 1 8 4 9 5 10 6 9 5 8 4 11 7 20 8 21 9 22 10 23 11 22 10 21 9 28 7 29 4 30 5 31 6 30 5 29 4 36 12 37 13 38 14 39 15 38 14 37 13 44 16 45 17 46 18 47 19 46 18 45 17</p>
                </triangles>
                <triangles count="2" material="Material4">
                    <input offset="0" semantic="VERTEX" source="#ID39" />
                    <p>12 13 14 15 14 13</p>
                </triangles>
            </mesh>
        </geometry>
        <geometry id="ID44">
            <mesh>
                <source id="ID45">
                    <float_array id="ID49" count="144">115.0949 6.692913 0 115.0949 0.3937008 164.5669 115.0949 0.3937008 0 115.0949 6.692913 164.5669 115.0949 6.692913 164.5669 115.0949 6.692913 0 115.0949 0.3937008 164.5669 115.0949 0.3937008 0 120.215 6.692913 0 115.0949 0.3937008 0 115.0949 6.692913 0 120.215 0.3937008 0 120.215 0.3937008 0 120.215 6.692913 0 115.0949 0.3937008 0 115.0949 6.692913 0 120.215 6.692913 164.5669 115.0949 6.692913 0 120.215 6.692913 0 115.0949 6.692913 164.5669 115.0949 6.692913 164.5669 120.215 6.692913 164.5669 115.0949 6.692913 0 120.215 6.692913 0 120.215 6.692913 164.5669 115.0949 0.3937008 164.5669 115.0949 6.692913 164.5669 120.215 0.3937008 164.5669 120.215 0.3937008 164.5669 120.215 6.692913 164.5669 115.0949 0.3937008 164.5669 115.0949 6.692913 164.5669 115.0949 0.3937008 164.5669 120.215 0.3937008 0 115.0949 0.3937008 0 120.215 0.3937008 164.5669 120.215 0.3937008 164.5669 115.0949 0.3937008 164.5669 120.215 0.3937008 0 115.0949 0.3937008 0 120.215 6.692913 164.5669 120.215 0.3937008 0 120.215 0.3937008 164.5669 120.215 6.692913 0 120.215 6.692913 0 120.215 6.692913 164.5669 120.215 0.3937008 0 120.215 0.3937008 164.5669</float_array>
                    <technique_common>
                        <accessor count="48" source="#ID49" stride="3">
                            <param name="X" type="float" />
                            <param name="Y" type="float" />
                            <param name="Z" type="float" />
                        </accessor>
                    </technique_common>
                </source>
                <source id="ID46">
                    <float_array id="ID50" count="144">1 0 0 1 0 0 1 0 0 1 0 0 -1 -0 -0 -1 -0 -0 -1 -0 -0 -1 -0 -0 0 0 -1 0 0 -1 0 0 -1 0 0 -1 -0 -0 1 -0 -0 1 -0 -0 1 -0 -0 1 0 -1 0 0 -1 0 0 -1 0 0 -1 0 -0 1 -0 -0 1 -0 -0 1 -0 -0 1 -0 0 0 -1 0 0 -1 0 0 -1 0 0 -1 -0 -0 1 -0 -0 1 -0 -0 1 -0 -0 1 0 1 0 0 1 0 0 1 0 0 1 0 -0 -1 -0 -0 -1 -0 -0 -1 -0 -0 -1 -0 -1 0 0 -1 0 0 -1 0 0 -1 0 0 1 -0 -0 1 -0 -0 1 -0 -0 1 -0 -0</float_array>
                    <technique_common>
                        <accessor count="48" source="#ID50" stride="3">
                            <param name="X" type="float" />
                            <param name="Y" type="float" />
                            <param name="Z" type="float" />
                        </accessor>
                    </technique_common>
                </source>
                <source id="ID48">
                    <float_array id="ID51" count="40">0.4818257 2.285652 0.4818257 0 0.3943366 2.285652 0.3943366 0 -2.928379 0.4818257 -2.857267 0.3943366 -2.857267 0.4818257 -2.928379 0.3943366 2.857267 2.285652 2.928379 2.285652 2.857267 0 2.928379 0 -2.928379 2.285652 -2.857267 2.285652 -2.928379 0 -2.857267 0 -0.4818257 0 -0.4818257 2.285652 -0.3943366 0 -0.3943366 2.285652</float_array>
                    <technique_common>
                        <accessor count="20" source="#ID51" stride="2">
                            <param name="S" type="float" />
                            <param name="T" type="float" />
                        </accessor>
                    </technique_common>
                </source>
                <vertices id="ID47">
                    <input semantic="POSITION" source="#ID45" />
                    <input semantic="NORMAL" source="#ID46" />
                </vertices>
                <triangles count="10" material="Material2">
                    <input offset="0" semantic="VERTEX" source="#ID47" />
                    <p>0 1 2 1 0 3 16 17 18 17 16 19 24 25 26 25 24 27 32 33 34 33 32 35 40 41 42 41 40 43</p>
                </triangles>
                <triangles count="12" material="Material3">
                    <input offset="0" semantic="VERTEX" source="#ID47" />
                    <input offset="1" semantic="TEXCOORD" source="#ID48" />
                    <p>4 0 5 1 6 2 7 3 6 2 5 1 8 4 9 5 10 6 9 5 8 4 11 7 20 8 21 9 22 10 23 11 22 10 21 9 28 7 29 4 30 5 31 6 30 5 29 4 36 12 37 13 38 14 39 15 38 14 37 13 44 16 45 17 46 18 47 19 46 18 45 17</p>
                </triangles>
                <triangles count="2" material="Material4">
                    <input offset="0" semantic="VERTEX" source="#ID47" />
                    <p>12 13 14 15 14 13</p>
                </triangles>
            </mesh>
        </geometry>
        <geometry id="ID52">
            <mesh>
                <source id="ID53">
                    <float_array id="ID57" count="144">89.43409 0.3937008 164.5669 94.55417 0.3937008 0 89.43409 0.3937008 0 94.55417 0.3937008 164.5669 94.55417 0.3937008 164.5669 89.43409 0.3937008 164.5669 94.55417 0.3937008 0 89.43409 0.3937008 0 94.55417 6.692913 0 89.43409 0.3937008 0 89.43409 6.692913 0 94.55417 0.3937008 0 94.55417 0.3937008 0 94.55417 6.692913 0 89.43409 0.3937008 0 89.43409 6.692913 0 89.43409 6.692913 0 89.43409 0.3937008 164.5669 89.43409 0.3937008 0 89.43409 6.692913 164.5669 89.43409 6.692913 164.5669 89.43409 6.692913 0 89.43409 0.3937008 164.5669 89.43409 0.3937008 0 94.55417 6.692913 164.5669 89.43409 0.3937008 164.5669 89.43409 6.692913 164.5669 94.55417 0.3937008 164.5669 94.55417 0.3937008 164.5669 94.55417 6.692913 164.5669 89.43409 0.3937008 164.5669 89.43409 6.692913 164.5669 94.55417 6.692913 164.5669 94.55417 0.3937008 0 94.55417 0.3937008 164.5669 94.55417 6.692913 0 94.55417 6.692913 0 94.55417 6.692913 164.5669 94.55417 0.3937008 0 94.55417 0.3937008 164.5669 94.55417 6.692913 164.5669 89.43409 6.692913 0 94.55417 6.692913 0 89.43409 6.692913 164.5669 89.43409 6.692913 164.5669 94.55417 6.692913 164.5669 89.43409 6.692913 0 94.55417 6.692913 0</float_array>
                    <technique_common>
                        <accessor count="48" source="#ID57" stride="3">
                            <param name="X" type="float" />
                            <param name="Y" type="float" />
                            <param name="Z" type="float" />
                        </accessor>
                    </technique_common>
                </source>
                <source id="ID54">
                    <float_array id="ID58" count="144">0 1 0 0 1 0 0 1 0 0 1 0 -0 -1 -0 -0 -1 -0 -0 -1 -0 -0 -1 -0 0 0 -1 0 0 -1 0 0 -1 0 0 -1 -0 -0 1 -0 -0 1 -0 -0 1 -0 -0 1 1 0 0 1 0 0 1 0 0 1 0 0 -1 -0 -0 -1 -0 -0 -1 -0 -0 -1 -0 -0 0 0 -1 0 0 -1 0 0 -1 0 0 -1 -0 -0 1 -0 -0 1 -0 -0 1 -0 -0 1 -1 0 0 -1 0 0 -1 0 0 -1 0 0 1 -0 -0 1 -0 -0 1 -0 -0 1 -0 -0 0 -1 0 0 -1 0 0 -1 0 0 -1 0 -0 1 -0 -0 1 -0 -0 1 -0 -0 1 -0</float_array>
                    <technique_common>
                        <accessor count="48" source="#ID58" stride="3">
                            <param name="X" type="float" />
                            <param name="Y" type="float" />
                            <param name="Z" type="float" />
                        </accessor>
                    </technique_common>
                </source>
                <source id="ID56">
                    <float_array id="ID59" count="40">-2.571979 2.285652 -2.500867 2.285652 -2.571979 0 -2.500867 0 -2.571979 0.4818257 -2.500867 0.3943366 -2.500867 0.4818257 -2.571979 0.3943366 0.4818257 2.285652 0.4818257 0 0.3943366 2.285652 0.3943366 0 -0.4818257 0 -0.4818257 2.285652 -0.3943366 0 -0.3943366 2.285652 2.500867 2.285652 2.571979 2.285652 2.500867 0 2.571979 0</float_array>
                    <technique_common>
                        <accessor count="20" source="#ID59" stride="2">
                            <param name="S" type="float" />
                            <param name="T" type="float" />
                        </accessor>
                    </technique_common>
                </source>
                <vertices id="ID55">
                    <input semantic="POSITION" source="#ID53" />
                    <input semantic="NORMAL" source="#ID54" />
                </vertices>
                <triangles count="10" material="Material2">
                    <input offset="0" semantic="VERTEX" source="#ID55" />
                    <p>0 1 2 1 0 3 16 17 18 17 16 19 24 25 26 25 24 27 32 33 34 33 32 35 40 41 42 41 40 43</p>
                </triangles>
                <triangles count="12" material="Material3">
                    <input offset="0" semantic="VERTEX" source="#ID55" />
                    <input offset="1" semantic="TEXCOORD" source="#ID56" />
                    <p>4 0 5 1 6 2 7 3 6 2 5 1 8 4 9 5 10 6 9 5 8 4 11 7 20 8 21 9 22 10 23 11 22 10 21 9 28 7 29 4 30 5 31 6 30 5 29 4 36 12 37 13 38 14 39 15 38 14 37 13 44 16 45 17 46 18 47 19 46 18 45 17</p>
                </triangles>
                <triangles count="2" material="Material4">
                    <input offset="0" semantic="VERTEX" source="#ID55" />
                    <p>12 13 14 15 14 13</p>
                </triangles>
            </mesh>
        </geometry>
        <geometry id="ID60">
            <mesh>
                <source id="ID61">
                    <float_array id="ID65" count="144">38.11252 6.692913 0 38.11252 0.3937008 164.5669 38.11252 0.3937008 0 38.11252 6.692913 164.5669 38.11252 6.692913 164.5669 38.11252 6.692913 0 38.11252 0.3937008 164.5669 38.11252 0.3937008 0 43.2326 6.692913 0 38.11252 0.3937008 0 38.11252 6.692913 0 43.2326 0.3937008 0 43.2326 0.3937008 0 43.2326 6.692913 0 38.11252 0.3937008 0 38.11252 6.692913 0 43.2326 6.692913 164.5669 38.11252 6.692913 0 43.2326 6.692913 0 38.11252 6.692913 164.5669 38.11252 6.692913 164.5669 43.2326 6.692913 164.5669 38.11252 6.692913 0 43.2326 6.692913 0 43.2326 6.692913 164.5669 38.11252 0.3937008 164.5669 38.11252 6.692913 164.5669 43.2326 0.3937008 164.5669 43.2326 0.3937008 164.5669 43.2326 6.692913 164.5669 38.11252 0.3937008 164.5669 38.11252 6.692913 164.5669 38.11252 0.3937008 164.5669 43.2326 0.3937008 0 38.11252 0.3937008 0 43.2326 0.3937008 164.5669 43.2326 0.3937008 164.5669 38.11252 0.3937008 164.5669 43.2326 0.3937008 0 38.11252 0.3937008 0 43.2326 6.692913 164.5669 43.2326 0.3937008 0 43.2326 0.3937008 164.5669 43.2326 6.692913 0 43.2326 6.692913 0 43.2326 6.692913 164.5669 43.2326 0.3937008 0 43.2326 0.3937008 164.5669</float_array>
                    <technique_common>
                        <accessor count="48" source="#ID65" stride="3">
                            <param name="X" type="float" />
                            <param name="Y" type="float" />
                            <param name="Z" type="float" />
                        </accessor>
                    </technique_common>
                </source>
                <source id="ID62">
                    <float_array id="ID66" count="144">1 0 0 1 0 0 1 0 0 1 0 0 -1 -0 -0 -1 -0 -0 -1 -0 -0 -1 -0 -0 0 0 -1 0 0 -1 0 0 -1 0 0 -1 -0 -0 1 -0 -0 1 -0 -0 1 -0 -0 1 0 -1 0 0 -1 0 0 -1 0 0 -1 0 -0 1 -0 -0 1 -0 -0 1 -0 -0 1 -0 0 0 -1 0 0 -1 0 0 -1 0 0 -1 -0 -0 1 -0 -0 1 -0 -0 1 -0 -0 1 0 1 0 0 1 0 0 1 0 0 1 0 -0 -1 -0 -0 -1 -0 -0 -1 -0 -0 -1 -0 -1 0 0 -1 0 0 -1 0 0 -1 0 0 1 -0 -0 1 -0 -0 1 -0 -0 1 -0 -0</float_array>
                    <technique_common>
                        <accessor count="48" source="#ID66" stride="3">
                            <param name="X" type="float" />
                            <param name="Y" type="float" />
                            <param name="Z" type="float" />
                        </accessor>
                    </technique_common>
                </source>
                <source id="ID64">
                    <float_array id="ID67" count="40">0.4818257 2.285652 0.4818257 0 0.3943366 2.285652 0.3943366 0 -1.859179 0.4818257 -1.788067 0.3943366 -1.788067 0.4818257 -1.859179 0.3943366 1.788067 2.285652 1.859179 2.285652 1.788067 0 1.859179 0 -1.859179 2.285652 -1.788067 2.285652 -1.859179 0 -1.788067 0 -0.4818257 0 -0.4818257 2.285652 -0.3943366 0 -0.3943366 2.285652</float_array>
                    <technique_common>
                        <accessor count="20" source="#ID67" stride="2">
                            <param name="S" type="float" />
                            <param name="T" type="float" />
                        </accessor>
                    </technique_common>
                </source>
                <vertices id="ID63">
                    <input semantic="POSITION" source="#ID61" />
                    <input semantic="NORMAL" source="#ID62" />
                </vertices>
                <triangles count="10" material="Material2">
                    <input offset="0" semantic="VERTEX" source="#ID63" />
                    <p>0 1 2 1 0 3 16 17 18 17 16 19 24 25 26 25 24 27 32 33 34 33 32 35 40 41 42 41 40 43</p>
                </triangles>
                <triangles count="12" material="Material3">
                    <input offset="0" semantic="VERTEX" source="#ID63" />
                    <input offset="1" semantic="TEXCOORD" source="#ID64" />
                    <p>4 0 5 1 6 2 7 3 6 2 5 1 8 4 9 5 10 6 9 5 8 4 11 7 20 8 21 9 22 10 23 11 22 10 21 9 28 7 29 4 30 5 31 6 30 5 29 4 36 12 37 13 38 14 39 15 38 14 37 13 44 16 45 17 46 18 47 19 46 18 45 17</p>
                </triangles>
                <triangles count="2" material="Material4">
                    <input offset="0" semantic="VERTEX" source="#ID63" />
                    <p>12 13 14 15 14 13</p>
                </triangles>
            </mesh>
        </geometry>
        <geometry id="ID68">
            <mesh>
                <source id="ID69">
                    <float_array id="ID73" count="144">146.0484 6.692913 164.5669 140.9284 0.3937008 164.5669 140.9284 6.692913 164.5669 146.0484 0.3937008 164.5669 146.0484 0.3937008 164.5669 146.0484 6.692913 164.5669 140.9284 0.3937008 164.5669 140.9284 6.692913 164.5669 140.9284 6.692913 0 140.9284 0.3937008 164.5669 140.9284 0.3937008 0 140.9284 6.692913 164.5669 140.9284 6.692913 164.5669 140.9284 6.692913 0 140.9284 0.3937008 164.5669 140.9284 0.3937008 0 146.0484 6.692913 164.5669 140.9284 6.692913 0 146.0484 6.692913 0 140.9284 6.692913 164.5669 140.9284 6.692913 164.5669 146.0484 6.692913 164.5669 140.9284 6.692913 0 146.0484 6.692913 0 146.0484 6.692913 164.5669 146.0484 0.3937008 0 146.0484 0.3937008 164.5669 146.0484 6.692913 0 146.0484 6.692913 0 146.0484 6.692913 164.5669 146.0484 0.3937008 0 146.0484 0.3937008 164.5669 140.9284 0.3937008 164.5669 146.0484 0.3937008 0 140.9284 0.3937008 0 146.0484 0.3937008 164.5669 146.0484 0.3937008 164.5669 140.9284 0.3937008 164.5669 146.0484 0.3937008 0 140.9284 0.3937008 0 146.0484 6.692913 0 140.9284 0.3937008 0 140.9284 6.692913 0 146.0484 0.3937008 0 146.0484 0.3937008 0 146.0484 6.692913 0 140.9284 0.3937008 0 140.9284 6.692913 0</float_array>
                    <technique_common>
                        <accessor count="48" source="#ID73" stride="3">
                            <param name="X" type="float" />
                            <param name="Y" type="float" />
                            <param name="Z" type="float" />
                        </accessor>
                    </technique_common>
                </source>
                <source id="ID70">
                    <float_array id="ID74" count="144">0 0 -1 0 0 -1 0 0 -1 0 0 -1 -0 -0 1 -0 -0 1 -0 -0 1 -0 -0 1 1 0 0 1 0 0 1 0 0 1 0 0 -1 -0 -0 -1 -0 -0 -1 -0 -0 -1 -0 -0 0 -1 0 0 -1 0 0 -1 0 0 -1 0 -0 1 -0 -0 1 -0 -0 1 -0 -0 1 -0 -1 0 0 -1 0 0 -1 0 0 -1 0 0 1 -0 -0 1 -0 -0 1 -0 -0 1 -0 -0 0 1 0 0 1 0 0 1 0 0 1 0 -0 -1 -0 -0 -1 -0 -0 -1 -0 -0 -1 -0 0 0 -1 0 0 -1 0 0 -1 0 0 -1 -0 -0 1 -0 -0 1 -0 -0 1 -0 -0 1</float_array>
                    <technique_common>
                        <accessor count="48" source="#ID74" stride="3">
                            <param name="X" type="float" />
                            <param name="Y" type="float" />
                            <param name="Z" type="float" />
                        </accessor>
                    </technique_common>
                </source>
                <source id="ID72">
                    <float_array id="ID75" count="40">-3.287177 0.3943366 -3.287177 0.4818257 -3.216065 0.3943366 -3.216065 0.4818257 0.4818257 2.285652 0.4818257 0 0.3943366 2.285652 0.3943366 0 3.216065 2.285652 3.287177 2.285652 3.216065 0 3.287177 0 -0.4818257 0 -0.4818257 2.285652 -0.3943366 0 -0.3943366 2.285652 -3.287177 2.285652 -3.216065 2.285652 -3.287177 0 -3.216065 0</float_array>
                    <technique_common>
                        <accessor count="20" source="#ID75" stride="2">
                            <param name="S" type="float" />
                            <param name="T" type="float" />
                        </accessor>
                    </technique_common>
                </source>
                <vertices id="ID71">
                    <input semantic="POSITION" source="#ID69" />
                    <input semantic="NORMAL" source="#ID70" />
                </vertices>
                <triangles count="10" material="Material2">
                    <input offset="0" semantic="VERTEX" source="#ID71" />
                    <p>0 1 2 1 0 3 8 9 10 9 8 11 16 17 18 17 16 19 24 25 26 25 24 27 32 33 34 33 32 35</p>
                </triangles>
                <triangles count="12" material="Material3">
                    <input offset="0" semantic="VERTEX" source="#ID71" />
                    <input offset="1" semantic="TEXCOORD" source="#ID72" />
                    <p>4 0 5 1 6 2 7 3 6 2 5 1 12 4 13 5 14 6 15 7 14 6 13 5 20 8 21 9 22 10 23 11 22 10 21 9 28 12 29 13 30 14 31 15 30 14 29 13 36 16 37 17 38 18 39 19 38 18 37 17 40 1 41 2 42 3 41 2 40 1 43 0</p>
                </triangles>
                <triangles count="2" material="Material4">
                    <input offset="0" semantic="VERTEX" source="#ID71" />
                    <p>44 45 46 47 46 45</p>
                </triangles>
            </mesh>
        </geometry>
        <geometry id="ID76">
            <mesh>
                <source id="ID77">
                    <float_array id="ID81" count="96">5.120078 6.692913 164.5669 0 0.3937008 164.5669 0 6.692913 164.5669 5.120078 0.3937008 164.5669 5.120078 0.3937008 164.5669 5.120078 6.692913 164.5669 0 0.3937008 164.5669 0 6.692913 164.5669 0 6.692913 0 0 0.3937008 164.5669 0 0.3937008 0 0 6.692913 164.5669 0 6.692913 164.5669 0 6.692913 0 0 0.3937008 164.5669 0 0.3937008 0 5.120078 6.692913 164.5669 0 6.692913 0 5.120078 6.692913 0 0 6.692913 164.5669 0 6.692913 164.5669 5.120078 6.692913 164.5669 0 6.692913 0 5.120078 6.692913 0 5.120078 6.692913 0 0 0.3937008 0 0 6.692913 0 5.120078 0.3937008 0 5.120078 0.3937008 0 5.120078 6.692913 0 0 0.3937008 0 0 6.692913 0</float_array>
                    <technique_common>
                        <accessor count="32" source="#ID81" stride="3">
                            <param name="X" type="float" />
                            <param name="Y" type="float" />
                            <param name="Z" type="float" />
                        </accessor>
                    </technique_common>
                </source>
                <source id="ID78">
                    <float_array id="ID82" count="96">0 0 -1 0 0 -1 0 0 -1 0 0 -1 -0 -0 1 -0 -0 1 -0 -0 1 -0 -0 1 1 0 0 1 0 0 1 0 0 1 0 0 -1 -0 -0 -1 -0 -0 -1 -0 -0 -1 -0 -0 0 -1 0 0 -1 0 0 -1 0 0 -1 0 -0 1 -0 -0 1 -0 -0 1 -0 -0 1 -0 0 0 -1 0 0 -1 0 0 -1 0 0 -1 -0 -0 1 -0 -0 1 -0 -0 1 -0 -0 1</float_array>
                    <technique_common>
                        <accessor count="32" source="#ID82" stride="3">
                            <param name="X" type="float" />
                            <param name="Y" type="float" />
                            <param name="Z" type="float" />
                        </accessor>
                    </technique_common>
                </source>
                <source id="ID80">
                    <float_array id="ID83" count="24">-1.329839 0.3943366 -1.329839 0.4818257 -1.258727 0.3943366 -1.258727 0.4818257 0.4818257 2.285652 0.4818257 0 0.3943366 2.285652 0.3943366 0 1.258727 2.285652 1.329839 2.285652 1.258727 0 1.329839 0</float_array>
                    <technique_common>
                        <accessor count="12" source="#ID83" stride="2">
                            <param name="S" type="float" />
                            <param name="T" type="float" />
                        </accessor>
                    </technique_common>
                </source>
                <vertices id="ID79">
                    <input semantic="POSITION" source="#ID77" />
                    <input semantic="NORMAL" source="#ID78" />
                </vertices>
                <triangles count="6" material="Material2">
                    <input offset="0" semantic="VERTEX" source="#ID79" />
                    <p>0 1 2 1 0 3 8 9 10 9 8 11 16 17 18 17 16 19</p>
                </triangles>
                <triangles count="8" material="Material3">
                    <input offset="0" semantic="VERTEX" source="#ID79" />
                    <input offset="1" semantic="TEXCOORD" source="#ID80" />
                    <p>4 0 5 1 6 2 7 3 6 2 5 1 12 4 13 5 14 6 15 7 14 6 13 5 20 8 21 9 22 10 23 11 22 10 21 9 24 1 25 2 26 3 25 2 24 1 27 0</p>
                </triangles>
                <triangles count="2" material="Material4">
                    <input offset="0" semantic="VERTEX" source="#ID79" />
                    <p>28 29 30 31 30 29</p>
                </triangles>
            </mesh>
        </geometry>
        <geometry id="ID84">
            <mesh>
                <source id="ID85">
                    <float_array id="ID89" count="144">63.91327 6.692913 0 63.91327 0.3937008 164.5669 63.91327 0.3937008 0 63.91327 6.692913 164.5669 63.91327 6.692913 164.5669 63.91327 6.692913 0 63.91327 0.3937008 164.5669 63.91327 0.3937008 0 69.03335 6.692913 0 63.91327 0.3937008 0 63.91327 6.692913 0 69.03335 0.3937008 0 69.03335 0.3937008 0 69.03335 6.692913 0 63.91327 0.3937008 0 63.91327 6.692913 0 69.03335 6.692913 164.5669 63.91327 6.692913 0 69.03335 6.692913 0 63.91327 6.692913 164.5669 63.91327 6.692913 164.5669 69.03335 6.692913 164.5669 63.91327 6.692913 0 69.03335 6.692913 0 69.03335 6.692913 164.5669 63.91327 0.3937008 164.5669 63.91327 6.692913 164.5669 69.03335 0.3937008 164.5669 69.03335 0.3937008 164.5669 69.03335 6.692913 164.5669 63.91327 0.3937008 164.5669 63.91327 6.692913 164.5669 63.91327 0.3937008 164.5669 69.03335 0.3937008 0 63.91327 0.3937008 0 69.03335 0.3937008 164.5669 69.03335 0.3937008 164.5669 63.91327 0.3937008 164.5669 69.03335 0.3937008 0 63.91327 0.3937008 0 69.03335 6.692913 164.5669 69.03335 0.3937008 0 69.03335 0.3937008 164.5669 69.03335 6.692913 0 69.03335 6.692913 0 69.03335 6.692913 164.5669 69.03335 0.3937008 0 69.03335 0.3937008 164.5669</float_array>
                    <technique_common>
                        <accessor count="48" source="#ID89" stride="3">
                            <param name="X" type="float" />
                            <param name="Y" type="float" />
                            <param name="Z" type="float" />
                        </accessor>
                    </technique_common>
                </source>
                <source id="ID86">
                    <float_array id="ID90" count="144">1 0 0 1 0 0 1 0 0 1 0 0 -1 -0 -0 -1 -0 -0 -1 -0 -0 -1 -0 -0 0 0 -1 0 0 -1 0 0 -1 0 0 -1 -0 -0 1 -0 -0 1 -0 -0 1 -0 -0 1 0 -1 0 0 -1 0 0 -1 0 0 -1 0 -0 1 -0 -0 1 -0 -0 1 -0 -0 1 -0 0 0 -1 0 0 -1 0 0 -1 0 0 -1 -0 -0 1 -0 -0 1 -0 -0 1 -0 -0 1 0 1 0 0 1 0 0 1 0 0 1 0 -0 -1 -0 -0 -1 -0 -0 -1 -0 -0 -1 -0 -1 0 0 -1 0 0 -1 0 0 -1 0 0 1 -0 -0 1 -0 -0 1 -0 -0 1 -0 -0</float_array>
                    <technique_common>
                        <accessor count="48" source="#ID90" stride="3">
                            <param name="X" type="float" />
                            <param name="Y" type="float" />
                            <param name="Z" type="float" />
                        </accessor>
                    </technique_common>
                </source>
                <source id="ID88">
                    <float_array id="ID91" count="40">0.4818257 2.285652 0.4818257 0 0.3943366 2.285652 0.3943366 0 -2.217523 0.4818257 -2.146411 0.3943366 -2.146411 0.4818257 -2.217523 0.3943366 2.146411 2.285652 2.217523 2.285652 2.146411 0 2.217523 0 -2.217523 2.285652 -2.146411 2.285652 -2.217523 0 -2.146411 0 -0.4818257 0 -0.4818257 2.285652 -0.3943366 0 -0.3943366 2.285652</float_array>
                    <technique_common>
                        <accessor count="20" source="#ID91" stride="2">
                            <param name="S" type="float" />
                            <param name="T" type="float" />
                        </accessor>
                    </technique_common>
                </source>
                <vertices id="ID87">
                    <input semantic="POSITION" source="#ID85" />
                    <input semantic="NORMAL" source="#ID86" />
                </vertices>
                <triangles count="10" material="Material2">
                    <input offset="0" semantic="VERTEX" source="#ID87" />
                    <p>0 1 2 1 0 3 16 17 18 17 16 19 24 25 26 25 24 27 32 33 34 33 32 35 40 41 42 41 40 43</p>
                </triangles>
                <triangles count="12" material="Material3">
                    <input offset="0" semantic="VERTEX" source="#ID87" />
                    <input offset="1" semantic="TEXCOORD" source="#ID88" />
                    <p>4 0 5 1 6 2 7 3 6 2 5 1 8 4 9 5 10 6 9 5 8 4 11 7 20 8 21 9 22 10 23 11 22 10 21 9 28 7 29 4 30 5 31 6 30 5 29 4 36 12 37 13 38 14 39 15 38 14 37 13 44 16 45 17 46 18 47 19 46 18 45 17</p>
                </triangles>
                <triangles count="2" material="Material4">
                    <input offset="0" semantic="VERTEX" source="#ID87" />
                    <p>12 13 14 15 14 13</p>
                </triangles>
            </mesh>
        </geometry>
        <geometry id="ID92">
            <mesh>
                <source id="ID93">
                    <float_array id="ID97" count="144">128.4631 0 164.5669 133.5831 0 0 128.4631 0 0 133.5831 0 164.5669 133.5831 0 164.5669 128.4631 0 164.5669 133.5831 0 0 128.4631 0 0 133.5831 6.299213 0 128.4631 0 0 128.4631 6.299213 0 133.5831 0 0 133.5831 0 0 133.5831 6.299213 0 128.4631 0 0 128.4631 6.299213 0 128.4631 6.299213 0 128.4631 0 164.5669 128.4631 0 0 128.4631 6.299213 164.5669 128.4631 6.299213 164.5669 128.4631 6.299213 0 128.4631 0 164.5669 128.4631 0 0 133.5831 6.299213 164.5669 128.4631 0 164.5669 128.4631 6.299213 164.5669 133.5831 0 164.5669 133.5831 0 164.5669 133.5831 6.299213 164.5669 128.4631 0 164.5669 128.4631 6.299213 164.5669 133.5831 6.299213 164.5669 133.5831 0 0 133.5831 0 164.5669 133.5831 6.299213 0 133.5831 6.299213 0 133.5831 6.299213 164.5669 133.5831 0 0 133.5831 0 164.5669 133.5831 6.299213 164.5669 128.4631 6.299213 0 133.5831 6.299213 0 128.4631 6.299213 164.5669 128.4631 6.299213 164.5669 133.5831 6.299213 164.5669 128.4631 6.299213 0 133.5831 6.299213 0</float_array>
                    <technique_common>
                        <accessor count="48" source="#ID97" stride="3">
                            <param name="X" type="float" />
                            <param name="Y" type="float" />
                            <param name="Z" type="float" />
                        </accessor>
                    </technique_common>
                </source>
                <source id="ID94">
                    <float_array id="ID98" count="144">0 1 0 0 1 0 0 1 0 0 1 0 -0 -1 -0 -0 -1 -0 -0 -1 -0 -0 -1 -0 0 0 -1 0 0 -1 0 0 -1 0 0 -1 -0 -0 1 -0 -0 1 -0 -0 1 -0 -0 1 1 0 0 1 0 0 1 0 0 1 0 0 -1 -0 -0 -1 -0 -0 -1 -0 -0 -1 -0 -0 0 0 -1 0 0 -1 0 0 -1 0 0 -1 -0 -0 1 -0 -0 1 -0 -0 1 -0 -0 1 -1 0 0 -1 0 0 -1 0 0 -1 0 0 1 -0 -0 1 -0 -0 1 -0 -0 1 -0 -0 0 -1 0 0 -1 0 0 -1 0 0 -1 0 -0 1 -0 -0 1 -0 -0 1 -0 -0 1 -0</float_array>
                    <technique_common>
                        <accessor count="48" source="#ID98" stride="3">
                            <param name="X" type="float" />
                            <param name="Y" type="float" />
                            <param name="Z" type="float" />
                        </accessor>
                    </technique_common>
                </source>
                <source id="ID96">
                    <float_array id="ID99" count="40">-3.114048 2.285652 -3.042936 2.285652 -3.114048 0 -3.042936 0 -3.114048 0.4763576 -3.042936 0.3888685 -3.042936 0.4763576 -3.114048 0.3888685 0.4763576 2.285652 0.4763576 0 0.3888685 2.285652 0.3888685 0 -0.4763576 0 -0.4763576 2.285652 -0.3888685 0 -0.3888685 2.285652 3.042936 2.285652 3.114048 2.285652 3.042936 0 3.114048 0</float_array>
                    <technique_common>
                        <accessor count="20" source="#ID99" stride="2">
                            <param name="S" type="float" />
                            <param name="T" type="float" />
                        </accessor>
                    </technique_common>
                </source>
                <vertices id="ID95">
                    <input semantic="POSITION" source="#ID93" />
                    <input semantic="NORMAL" source="#ID94" />
                </vertices>
                <triangles count="10" material="Material2">
                    <input offset="0" semantic="VERTEX" source="#ID95" />
                    <p>0 1 2 1 0 3 16 17 18 17 16 19 24 25 26 25 24 27 32 33 34 33 32 35 40 41 42 41 40 43</p>
                </triangles>
                <triangles count="12" material="Material3">
                    <input offset="0" semantic="VERTEX" source="#ID95" />
                    <input offset="1" semantic="TEXCOORD" source="#ID96" />
                    <p>4 0 5 1 6 2 7 3 6 2 5 1 8 4 9 5 10 6 9 5 8 4 11 7 20 8 21 9 22 10 23 11 22 10 21 9 28 7 29 4 30 5 31 6 30 5 29 4 36 12 37 13 38 14 39 15 38 14 37 13 44 16 45 17 46 18 47 19 46 18 45 17</p>
                </triangles>
                <triangles count="2" material="Material4">
                    <input offset="0" semantic="VERTEX" source="#ID95" />
                    <p>12 13 14 15 14 13</p>
                </triangles>
            </mesh>
        </geometry>
        <geometry id="ID100">
            <mesh>
                <source id="ID101">
                    <float_array id="ID105" count="144">76.98236 6.692913 0 76.98236 0.3937008 164.5669 76.98236 0.3937008 0 76.98236 6.692913 164.5669 76.98236 6.692913 164.5669 76.98236 6.692913 0 76.98236 0.3937008 164.5669 76.98236 0.3937008 0 82.10244 6.692913 0 76.98236 0.3937008 0 76.98236 6.692913 0 82.10244 0.3937008 0 82.10244 0.3937008 0 82.10244 6.692913 0 76.98236 0.3937008 0 76.98236 6.692913 0 82.10244 6.692913 164.5669 76.98236 6.692913 0 82.10244 6.692913 0 76.98236 6.692913 164.5669 76.98236 6.692913 164.5669 82.10244 6.692913 164.5669 76.98236 6.692913 0 82.10244 6.692913 0 82.10244 6.692913 164.5669 76.98236 0.3937008 164.5669 76.98236 6.692913 164.5669 82.10244 0.3937008 164.5669 82.10244 0.3937008 164.5669 82.10244 6.692913 164.5669 76.98236 0.3937008 164.5669 76.98236 6.692913 164.5669 76.98236 0.3937008 164.5669 82.10244 0.3937008 0 76.98236 0.3937008 0 82.10244 0.3937008 164.5669 82.10244 0.3937008 164.5669 76.98236 0.3937008 164.5669 82.10244 0.3937008 0 76.98236 0.3937008 0 82.10244 6.692913 164.5669 82.10244 0.3937008 0 82.10244 0.3937008 164.5669 82.10244 6.692913 0 82.10244 6.692913 0 82.10244 6.692913 164.5669 82.10244 0.3937008 0 82.10244 0.3937008 164.5669</float_array>
                    <technique_common>
                        <accessor count="48" source="#ID105" stride="3">
                            <param name="X" type="float" />
                            <param name="Y" type="float" />
                            <param name="Z" type="float" />
                        </accessor>
                    </technique_common>
                </source>
                <source id="ID102">
                    <float_array id="ID106" count="144">1 0 0 1 0 0 1 0 0 1 0 0 -1 -0 -0 -1 -0 -0 -1 -0 -0 -1 -0 -0 0 0 -1 0 0 -1 0 0 -1 0 0 -1 -0 -0 1 -0 -0 1 -0 -0 1 -0 -0 1 0 -1 0 0 -1 0 0 -1 0 0 -1 0 -0 1 -0 -0 1 -0 -0 1 -0 -0 1 -0 0 0 -1 0 0 -1 0 0 -1 0 0 -1 -0 -0 1 -0 -0 1 -0 -0 1 -0 -0 1 0 1 0 0 1 0 0 1 0 0 1 0 -0 -1 -0 -0 -1 -0 -0 -1 -0 -0 -1 -0 -1 0 0 -1 0 0 -1 0 0 -1 0 0 1 -0 -0 1 -0 -0 1 -0 -0 1 -0 -0</float_array>
                    <technique_common>
                        <accessor count="48" source="#ID106" stride="3">
                            <param name="X" type="float" />
                            <param name="Y" type="float" />
                            <param name="Z" type="float" />
                        </accessor>
                    </technique_common>
                </source>
                <source id="ID104">
                    <float_array id="ID107" count="40">0.4818257 2.285652 0.4818257 0 0.3943366 2.285652 0.3943366 0 -2.399038 0.4818257 -2.327926 0.3943366 -2.327926 0.4818257 -2.399038 0.3943366 2.327926 2.285652 2.399038 2.285652 2.327926 0 2.399038 0 -2.399038 2.285652 -2.327926 2.285652 -2.399038 0 -2.327926 0 -0.4818257 0 -0.4818257 2.285652 -0.3943366 0 -0.3943366 2.285652</float_array>
                    <technique_common>
                        <accessor count="20" source="#ID107" stride="2">
                            <param name="S" type="float" />
                            <param name="T" type="float" />
                        </accessor>
                    </technique_common>
                </source>
                <vertices id="ID103">
                    <input semantic="POSITION" source="#ID101" />
                    <input semantic="NORMAL" source="#ID102" />
                </vertices>
                <triangles count="10" material="Material2">
                    <input offset="0" semantic="VERTEX" source="#ID103" />
                    <p>0 1 2 1 0 3 16 17 18 17 16 19 24 25 26 25 24 27 32 33 34 33 32 35 40 41 42 41 40 43</p>
                </triangles>
                <triangles count="12" material="Material3">
                    <input offset="0" semantic="VERTEX" source="#ID103" />
                    <input offset="1" semantic="TEXCOORD" source="#ID104" />
                    <p>4 0 5 1 6 2 7 3 6 2 5 1 8 4 9 5 10 6 9 5 8 4 11 7 20 8 21 9 22 10 23 11 22 10 21 9 28 7 29 4 30 5 31 6 30 5 29 4 36 12 37 13 38 14 39 15 38 14 37 13 44 16 45 17 46 18 47 19 46 18 45 17</p>
                </triangles>
                <triangles count="2" material="Material4">
                    <input offset="0" semantic="VERTEX" source="#ID103" />
                    <p>12 13 14 15 14 13</p>
                </triangles>
            </mesh>
        </geometry>
        <geometry id="ID108">
            <mesh>
                <source id="ID109">
                    <float_array id="ID113" count="144">107.7632 6.692913 164.5669 102.6431 0.3937008 164.5669 102.6431 6.692913 164.5669 107.7632 0.3937008 164.5669 107.7632 0.3937008 164.5669 107.7632 6.692913 164.5669 102.6431 0.3937008 164.5669 102.6431 6.692913 164.5669 102.6431 6.692913 0 102.6431 0.3937008 164.5669 102.6431 0.3937008 0 102.6431 6.692913 164.5669 102.6431 6.692913 164.5669 102.6431 6.692913 0 102.6431 0.3937008 164.5669 102.6431 0.3937008 0 107.7632 6.692913 164.5669 102.6431 6.692913 0 107.7632 6.692913 0 102.6431 6.692913 164.5669 102.6431 6.692913 164.5669 107.7632 6.692913 164.5669 102.6431 6.692913 0 107.7632 6.692913 0 107.7632 6.692913 164.5669 107.7632 0.3937008 0 107.7632 0.3937008 164.5669 107.7632 6.692913 0 107.7632 6.692913 0 107.7632 6.692913 164.5669 107.7632 0.3937008 0 107.7632 0.3937008 164.5669 102.6431 0.3937008 164.5669 107.7632 0.3937008 0 102.6431 0.3937008 0 107.7632 0.3937008 164.5669 107.7632 0.3937008 164.5669 102.6431 0.3937008 164.5669 107.7632 0.3937008 0 102.6431 0.3937008 0 107.7632 6.692913 0 102.6431 0.3937008 0 102.6431 6.692913 0 107.7632 0.3937008 0 107.7632 0.3937008 0 107.7632 6.692913 0 102.6431 0.3937008 0 102.6431 6.692913 0</float_array>
                    <technique_common>
                        <accessor count="48" source="#ID113" stride="3">
                            <param name="X" type="float" />
                            <param name="Y" type="float" />
                            <param name="Z" type="float" />
                        </accessor>
                    </technique_common>
                </source>
                <source id="ID110">
                    <float_array id="ID114" count="144">0 0 -1 0 0 -1 0 0 -1 0 0 -1 -0 -0 1 -0 -0 1 -0 -0 1 -0 -0 1 1 0 0 1 0 0 1 0 0 1 0 0 -1 -0 -0 -1 -0 -0 -1 -0 -0 -1 -0 -0 0 -1 0 0 -1 0 0 -1 0 0 -1 0 -0 1 -0 -0 1 -0 -0 1 -0 -0 1 -0 -1 0 0 -1 0 0 -1 0 0 -1 0 0 1 -0 -0 1 -0 -0 1 -0 -0 1 -0 -0 0 1 0 0 1 0 0 1 0 0 1 0 -0 -1 -0 -0 -1 -0 -0 -1 -0 -0 -1 -0 0 0 -1 0 0 -1 0 0 -1 0 0 -1 -0 -0 1 -0 -0 1 -0 -0 1 -0 -0 1</float_array>
                    <technique_common>
                        <accessor count="48" source="#ID114" stride="3">
                            <param name="X" type="float" />
                            <param name="Y" type="float" />
                            <param name="Z" type="float" />
                        </accessor>
                    </technique_common>
                </source>
                <source id="ID112">
                    <float_array id="ID115" count="40">-2.755438 0.3943366 -2.755438 0.4818257 -2.684326 0.3943366 -2.684326 0.4818257 0.4818257 2.285652 0.4818257 0 0.3943366 2.285652 0.3943366 0 2.684326 2.285652 2.755438 2.285652 2.684326 0 2.755438 0 -0.4818257 0 -0.4818257 2.285652 -0.3943366 0 -0.3943366 2.285652 -2.755438 2.285652 -2.684326 2.285652 -2.755438 0 -2.684326 0</float_array>
                    <technique_common>
                        <accessor count="20" source="#ID115" stride="2">
                            <param name="S" type="float" />
                            <param name="T" type="float" />
                        </accessor>
                    </technique_common>
                </source>
                <vertices id="ID111">
                    <input semantic="POSITION" source="#ID109" />
                    <input semantic="NORMAL" source="#ID110" />
                </vertices>
                <triangles count="10" material="Material2">
                    <input offset="0" semantic="VERTEX" source="#ID111" />
                    <p>0 1 2 1 0 3 8 9 10 9 8 11 16 17 18 17 16 19 24 25 26 25 24 27 32 33 34 33 32 35</p>
                </triangles>
                <triangles count="12" material="Material3">
                    <input offset="0" semantic="VERTEX" source="#ID111" />
                    <input offset="1" semantic="TEXCOORD" source="#ID112" />
                    <p>4 0 5 1 6 2 7 3 6 2 5 1 12 4 13 5 14 6 15 7 14 6 13 5 20 8 21 9 22 10 23 11 22 10 21 9 28 12 29 13 30 14 31 15 30 14 29 13 36 16 37 17 38 18 39 19 38 18 37 17 40 1 41 2 42 3 41 2 40 1 43 0</p>
                </triangles>
                <triangles count="2" material="Material4">
                    <input offset="0" semantic="VERTEX" source="#ID111" />
                    <p>44 45 46 47 46 45</p>
                </triangles>
            </mesh>
        </geometry>
        <geometry id="ID116">
            <mesh>
                <source id="ID117">
                    <float_array id="ID121" count="24">17.57181 6.692913 164.5669 17.57181 0.3937008 0 17.57181 0.3937008 164.5669 17.57181 6.692913 0 17.57181 6.692913 0 17.57181 6.692913 164.5669 17.57181 0.3937008 0 17.57181 0.3937008 164.5669</float_array>
                    <technique_common>
                        <accessor count="8" source="#ID121" stride="3">
                            <param name="X" type="float" />
                            <param name="Y" type="float" />
                            <param name="Z" type="float" />
                        </accessor>
                    </technique_common>
                </source>
                <source id="ID118">
                    <float_array id="ID122" count="24">-1 0 0 -1 0 0 -1 0 0 -1 0 0 1 -0 -0 1 -0 -0 1 -0 -0 1 -0 -0</float_array>
                    <technique_common>
                        <accessor count="8" source="#ID122" stride="3">
                            <param name="X" type="float" />
                            <param name="Y" type="float" />
                            <param name="Z" type="float" />
                        </accessor>
                    </technique_common>
                </source>
                <source id="ID120">
                    <float_array id="ID123" count="8">-0.4818257 2.285652 -0.3943366 0 -0.3943366 2.285652 -0.4818257 0</float_array>
                    <technique_common>
                        <accessor count="4" source="#ID123" stride="2">
                            <param name="S" type="float" />
                            <param name="T" type="float" />
                        </accessor>
                    </technique_common>
                </source>
                <vertices id="ID119">
                    <input semantic="POSITION" source="#ID117" />
                    <input semantic="NORMAL" source="#ID118" />
                </vertices>
                <triangles count="4" material="Material2">
                    <input offset="0" semantic="VERTEX" source="#ID119" />
                    <input offset="1" semantic="TEXCOORD" source="#ID120" />
                    <p>0 0 1 1 2 2 1 1 0 0 3 3 4 3 5 0 6 1 7 2 6 1 5 0</p>
                </triangles>
            </mesh>
        </geometry>
        <geometry id="ID124">
            <mesh>
                <source id="ID127">
                    <float_array id="ID129" count="6">143.8422 6.299213 3.150665 143.8422 6.299213 0.001058489</float_array>
                    <technique_common>
                        <accessor count="2" source="#ID129" stride="3">
                            <param name="X" type="float" />
                            <param name="Y" type="float" />
                            <param name="Z" type="float" />
                        </accessor>
                    </technique_common>
                </source>
                <vertices id="ID128">
                    <input semantic="POSITION" source="#ID127" />
                </vertices>
                <lines count="1" material="Material2">
                    <input offset="0" semantic="VERTEX" source="#ID128" />
                    <p>1 0</p>
                </lines>
            </mesh>
        </geometry>
    </library_geometries>
    <library_materials>
        <material id="ID5" name="material">
            <instance_effect url="#ID4" />
        </material>
        <material id="ID9" name="material_1">
            <instance_effect url="#ID10" />
        </material>
        <material id="ID16" name="material_0">
            <instance_effect url="#ID15" />
        </material>
        <material id="ID125" name="edge_color000255">
            <instance_effect url="#ID126" />
        </material>
    </library_materials>
    <library_effects>
        <effect id="ID4">
            <profile_COMMON>
                <technique sid="COMMON">
                    <lambert>
                        <diffuse>
                            <color>1 1 1 1</color>
                        </diffuse>
                    </lambert>
                </technique>
            </profile_COMMON>
        </effect>
        <effect id="ID10">
            <profile_COMMON>
                <newparam sid="ID12">
                    <surface type="2D">
                        <init_from>ID11</init_from>
                    </surface>
                </newparam>
                <newparam sid="ID13">
                    <sampler2D>
                        <source>ID12</source>
                    </sampler2D>
                </newparam>
                <technique sid="COMMON">
                    <lambert>
                        <diffuse>
                            <texture texture="ID13" texcoord="UVSET0" />
                        </diffuse>
                    </lambert>
                </technique>
            </profile_COMMON>
        </effect>
        <effect id="ID15">
            <profile_COMMON>
                <technique sid="COMMON">
                    <lambert>
                        <diffuse>
                            <color>0.6431373 0.6980392 0.7333333 1</color>
                        </diffuse>
                    </lambert>
                </technique>
            </profile_COMMON>
        </effect>
        <effect id="ID126">
            <profile_COMMON>
                <technique sid="COMMON">
                    <constant>
                        <transparent opaque="A_ONE">
                            <color>0 0 0 1</color>
                        </transparent>
                        <transparency>
                            <float>1</float>
                        </transparency>
                    </constant>
                </technique>
            </profile_COMMON>
        </effect>
    </library_effects>
    <library_images>
        <image id="ID11">
            <init_from>Old%20Fences/material_1.jpg</init_from>
        </image>
    </library_images>
    <scene>
        <instance_visual_scene url="#ID2" />
    </scene>
</COLLADA>
